{
  "project_info": {
    "project_number": "963795249967",
    "project_id": "awesomeapp-7af54",
    "storage_bucket": "awesomeapp-7af54.appspot.com"
  },
  "client": [
    {
      "client_info": {
        "mobilesdk_app_id": "1:963795249967:android:e43c78375eecaabf224fda",
        "android_client_info": {
          "package_name": "com.evermos.awesomeapp"
        }
      },
      "oauth_client": [
        {
          "client_id": "963795249967-r1tl0mkgpgtbg1g67vm7dh0im6hbestm.apps.googleusercontent.com",
          "client_type": 1,
          "android_info": {
            "package_name": "com.evermos.awesomeapp",
            "certificate_hash": "cddaa893f2c138cbad40e5190bc06f7c95381b0d"
          }
        },
        {
          "client_id": "963795249967-qp37fds1jctvtbfve7pj69f9t7mbulgt.apps.googleusercontent.com",
          "client_type": 3
        }
      ],
      "api_key": [
        {
          "current_key": "AIzaSyAFmLAII-TsN7y6-9GPgwkpqEy90CWUJXA"
        }
      ],
      "services": {
        "appinvite_service": {
          "other_platform_oauth_client": [
            {
              "client_id": "963795249967-qp37fds1jctvtbfve7pj69f9t7mbulgt.apps.googleusercontent.com",
              "client_type": 3
            }
          ]
        }
      }
    }
  ],
  "configuration_version": "1"
}